{
    "info": {
        "_postman_id": "c74ede3a-c7b7-45e3-8cbc-b397b0812784",
        "name": "appxyz-hosted",
        "schema": "https://schema.getpostman.com/json/collection/v2.1.0/collection.json",
        "description": ""
    },
    "item": [
        {
            "name": "spellbook",
            "item": [
                {
                    "name": "list spellbooks",
                    "request": {
                        "method": "GET",
                        "url": {
                            "raw": "https://whizme.wendelin.dev/spellbooks",
                            "path": [
                                "spellbooks"
                            ],
                            "protocol": "https",
                            "host": [
                                "whizme",
                                "wendelin",
                                "dev"
                            ]
                        }
                    }
                },
                {
                    "name": "create spellbook",
                    "request": {
                        "method": "POST",
                        "url": {
                            "raw": "https://whizme.wendelin.dev/spellbook?wizardName=Harry Potter",
                            "query": [
                                {
                                    "key": "wizardName",
                                    "value": "Harry Potter"
                                }
                            ],
                            "variable": [],
                            "path": [
                                "spellbook"
                            ],
                            "protocol": "https",
                            "host": [
                                "whizme",
                                "wendelin",
                                "dev"
                            ]
                        }
                    }
                },
                {
                    "name": "get spellbook",
                    "request": {
                        "method": "GET",
                        "url": {
                            "raw": "https://whizme.wendelin.dev/spellbook/1",
                            "path": [
                                "spellbook",
                                "1"
                            ],
                            "protocol": "https",
                            "host": [
                                "whizme",
                                "wendelin",
                                "dev"
                            ]
                        }
                    }
                },
                {
                    "name": "update spellbook",
                    "request": {
                        "method": "PATCH",
                        "url": {
                            "raw": "https://whizme.wendelin.dev/spellbook/1?wizardName=Potter Harold",
                            "query": [
                                {
                                    "key": "wizardName",
                                    "value": "Potter Harold"
                                }
                            ],
                            "variable": [],
                            "path": [
                                "spellbook",
                                "1"
                            ],
                            "protocol": "https",
                            "host": [
                                "whizme",
                                "wendelin",
                                "dev"
                            ]
                        }
                    }
                },
                {
                    "name": "delete spellbook",
                    "request": {
                        "method": "DELETE",
                        "url": {
                            "raw": "https://whizme.wendelin.dev/spellbook/1",
                            "path": [
                                "spellbook",
                                "1"
                            ],
                            "protocol": "https",
                            "host": [
                                "whizme",
                                "wendelin",
                                "dev"
                            ]
                        }
                    }
                }
            ]
        },
        {
            "name": "spell",
            "item": [
                {
                    "name": "create spell",
                    "request": {
                        "method": "POST",
                        "url": {
                            "raw": "https://whizme.wendelin.dev/spellbook/1/spell?incantation=wingardum liviosa&magicOutcome=the object in front of you starts to fly",
                            "query": [
                                {
                                    "key": "incantation",
                                    "value": "wingardum liviosa"
                                },
                                {
                                    "key": "magicOutcome",
                                    "value": "the object in front of you starts to fly"
                                }
                            ],
                            "variable": [],
                            "path": [
                                "spellbook",
                                "1",
                                "spell"
                            ],
                            "protocol": "https",
                            "host": [
                                "whizme",
                                "wendelin",
                                "dev"
                            ]
                        }
                    }
                },
                {
                    "name": "get spell",
                    "request": {
                        "method": "GET",
                        "url": {
                            "raw": "https://whizme.wendelin.dev/spell/1",
                            "path": [
                                "spell",
                                "1"
                            ],
                            "protocol": "https",
                            "host": [
                                "whizme",
                                "wendelin",
                                "dev"
                            ]
                        }
                    }
                },
                {
                    "name": "call spell",
                    "request": {
                        "method": "GET",
                        "url": {
                            "raw": "https://whizme.wendelin.dev/callspell/expliamus",
                            "path": [
                                "callspell",
                                "expliamus"
                            ],
                            "protocol": "https",
                            "host": [
                                "whizme",
                                "wendelin",
                                "dev"
                            ]
                        }
                    }
                },
                {
                    "name": "update Spell",
                    "request": {
                        "method": "PATCH",
                        "url": {
                            "raw": "https://whizme.wendelin.dev/spell/1?incantation=lumus&magicOutcome=wand shines like a flashlight",
                            "query": [
                                {
                                    "key": "incantation",
                                    "value": "lumus"
                                },
                                {
                                    "key": "magicOutcome",
                                    "value": "wand shines like a flashlight"
                                }
                            ],
                            "variable": [],
                            "path": [
                                "spell",
                                "1"
                            ],
                            "protocol": "https",
                            "host": [
                                "whizme",
                                "wendelin",
                                "dev"
                            ]
                        }
                    }
                },
                {
                    "name": "delete spell",
                    "request": {
                        "method": "DELETE",
                        "url": {
                            "raw": "https://whizme.wendelin.dev/spell/54",
                            "path": [
                                "spell",
                                "54"
                            ],
                            "protocol": "https",
                            "host": [
                                "whizme",
                                "wendelin",
                                "dev"
                            ]
                        }
                    }
                }
            ]
        }
    ]
}